%YAML 1.1
%TAG !u! tag:unity3d.com,2011:
--- !u!29 &1
OcclusionCullingSettings:
  m_ObjectHideFlags: 0
  serializedVersion: 2
  m_OcclusionBakeSettings:
    smallestOccluder: 5
    smallestHole: 0.25
    backfaceThreshold: 100
  m_SceneGUID: 00000000000000000000000000000000
  m_OcclusionCullingData: {fileID: 0}
--- !u!104 &2
RenderSettings:
  m_ObjectHideFlags: 0
  serializedVersion: 9
  m_Fog: 0
  m_FogColor: {r: 0.22352943, g: 0.28627452, b: 0.4901961, a: 1}
  m_FogMode: 3
  m_FogDensity: 0.05
  m_LinearFogStart: 2
  m_LinearFogEnd: 6.82
  m_AmbientSkyColor: {r: 0.7941176, g: 0.7941176, b: 0.7941176, a: 1}
  m_AmbientEquatorColor: {r: 0.7058823, g: 0.7058823, b: 0.7058823, a: 1}
  m_AmbientGroundColor: {r: 0.7058823, g: 0.7058823, b: 0.7058823, a: 1}
  m_AmbientIntensity: 1
  m_AmbientMode: 3
  m_SubtractiveShadowColor: {r: 1, g: 1, b: 1, a: 1}
  m_SkyboxMaterial: {fileID: 2100000, guid: 3439c9a1a4d385747817165aea69ec40, type: 2}
  m_HaloStrength: 0.5
  m_FlareStrength: 1
  m_FlareFadeSpeed: 3
  m_HaloTexture: {fileID: 0}
  m_SpotCookie: {fileID: 10001, guid: 0000000000000000e000000000000000, type: 0}
  m_DefaultReflectionMode: 0
  m_DefaultReflectionResolution: 256
  m_ReflectionBounces: 1
  m_ReflectionIntensity: 1
  m_CustomReflection: {fileID: 0}
  m_Sun: {fileID: 0}
  m_IndirectSpecularColor: {r: 0, g: 0, b: 0, a: 1}
  m_UseRadianceAmbientProbe: 0
--- !u!157 &4
LightmapSettings:
  m_ObjectHideFlags: 0
  serializedVersion: 11
  m_GIWorkflowMode: 0
  m_GISettings:
    serializedVersion: 2
    m_BounceScale: 1
    m_IndirectOutputScale: 1
    m_AlbedoBoost: 1
    m_EnvironmentLightingMode: 0
    m_EnableBakedLightmaps: 0
    m_EnableRealtimeLightmaps: 1
  m_LightmapEditorSettings:
    serializedVersion: 12
    m_Resolution: 2
    m_BakeResolution: 50
    m_AtlasSize: 1024
    m_AO: 0
    m_AOMaxDistance: 1
    m_CompAOExponent: 0
    m_CompAOExponentDirect: 0
    m_ExtractAmbientOcclusion: 0
    m_Padding: 2
    m_LightmapParameters: {fileID: 15204, guid: 0000000000000000f000000000000000,
      type: 0}
    m_LightmapsBakeMode: 1
    m_TextureCompression: 0
    m_FinalGather: 0
    m_FinalGatherFiltering: 1
    m_FinalGatherRayCount: 1024
    m_ReflectionCompression: 2
    m_MixedBakeMode: 0
    m_BakeBackend: 0
    m_PVRSampling: 1
    m_PVRDirectSampleCount: 32
    m_PVRSampleCount: 500
    m_PVRBounces: 2
    m_PVREnvironmentSampleCount: 500
    m_PVREnvironmentReferencePointCount: 2048
    m_PVRFilteringMode: 2
    m_PVRDenoiserTypeDirect: 0
    m_PVRDenoiserTypeIndirect: 0
    m_PVRDenoiserTypeAO: 0
    m_PVRFilterTypeDirect: 0
    m_PVRFilterTypeIndirect: 0
    m_PVRFilterTypeAO: 0
    m_PVREnvironmentMIS: 0
    m_PVRCulling: 1
    m_PVRFilteringGaussRadiusDirect: 1
    m_PVRFilteringGaussRadiusIndirect: 5
    m_PVRFilteringGaussRadiusAO: 2
    m_PVRFilteringAtrousPositionSigmaDirect: 0.5
    m_PVRFilteringAtrousPositionSigmaIndirect: 2
    m_PVRFilteringAtrousPositionSigmaAO: 1
    m_ExportTrainingData: 0
    m_TrainingDataDestination: TrainingData
    m_LightProbeSampleCountMultiplier: 4
  m_LightingDataAsset: {fileID: 0}
  m_UseShadowmask: 0
--- !u!196 &552
NavMeshSettings:
  serializedVersion: 2
  m_ObjectHideFlags: 0
  m_BuildSettings:
    serializedVersion: 2
    agentTypeID: 0
    agentRadius: 0.5
    agentHeight: 2
    agentSlope: 45
    agentClimb: 0.4
    ledgeDropHeight: 0
    maxJumpAcrossDistance: 0
    minRegionArea: 2
    manualCellSize: 0
    cellSize: 0.16666666
    manualTileSize: 0
    tileSize: 256
    accuratePlacement: 0
    debug:
      m_Flags: 0
  m_NavMeshData: {fileID: 0}
--- !u!1001 &542792105
PrefabInstance:
  m_ObjectHideFlags: 0
  serializedVersion: 2
  m_Modification:
    m_TransformParent: {fileID: 0}
    m_Modifications:
    - target: {fileID: 100000, guid: 63432aaeb1e8c924ab47a1878ba67bc8, type: 3}
      propertyPath: m_IsActive
      value: 1
      objectReference: {fileID: 0}
    - target: {fileID: 400000, guid: 63432aaeb1e8c924ab47a1878ba67bc8, type: 3}
      propertyPath: m_LocalPosition.x
      value: 4.3
      objectReference: {fileID: 0}
    - target: {fileID: 400000, guid: 63432aaeb1e8c924ab47a1878ba67bc8, type: 3}
      propertyPath: m_LocalPosition.y
      value: 22.46
      objectReference: {fileID: 0}
    - target: {fileID: 400000, guid: 63432aaeb1e8c924ab47a1878ba67bc8, type: 3}
      propertyPath: m_LocalPosition.z
      value: 3.24
      objectReference: {fileID: 0}
    - target: {fileID: 400000, guid: 63432aaeb1e8c924ab47a1878ba67bc8, type: 3}
      propertyPath: m_LocalRotation.x
      value: 0.00000028069994
      objectReference: {fileID: 0}
    - target: {fileID: 400000, guid: 63432aaeb1e8c924ab47a1878ba67bc8, type: 3}
      propertyPath: m_LocalRotation.y
      value: -0
      objectReference: {fileID: 0}
    - target: {fileID: 400000, guid: 63432aaeb1e8c924ab47a1878ba67bc8, type: 3}
      propertyPath: m_LocalRotation.z
      value: -0
      objectReference: {fileID: 0}
    - target: {fileID: 400000, guid: 63432aaeb1e8c924ab47a1878ba67bc8, type: 3}
      propertyPath: m_LocalRotation.w
      value: 1
      objectReference: {fileID: 0}
    - target: {fileID: 400000, guid: 63432aaeb1e8c924ab47a1878ba67bc8, type: 3}
      propertyPath: m_RootOrder
      value: 0
      objectReference: {fileID: 0}
    - target: {fileID: 19800000, guid: 63432aaeb1e8c924ab47a1878ba67bc8, type: 3}
      propertyPath: randomSeed
      value: -1548485554
      objectReference: {fileID: 0}
    - target: {fileID: 19800000, guid: 63432aaeb1e8c924ab47a1878ba67bc8, type: 3}
      propertyPath: InitialModule.startSizeY.minMaxState
      value: 3
      objectReference: {fileID: 0}
    - target: {fileID: 19800000, guid: 63432aaeb1e8c924ab47a1878ba67bc8, type: 3}
      propertyPath: InitialModule.startSizeZ.minMaxState
      value: 3
      objectReference: {fileID: 0}
    - target: {fileID: 19800000, guid: 63432aaeb1e8c924ab47a1878ba67bc8, type: 3}
      propertyPath: InitialModule.startRotationX.minMaxState
      value: 3
      objectReference: {fileID: 0}
    - target: {fileID: 19800000, guid: 63432aaeb1e8c924ab47a1878ba67bc8, type: 3}
      propertyPath: InitialModule.startRotationY.minMaxState
      value: 3
      objectReference: {fileID: 0}
    - target: {fileID: 19800000, guid: 63432aaeb1e8c924ab47a1878ba67bc8, type: 3}
      propertyPath: InitialModule.startColor.maxColor.r
      value: 1
      objectReference: {fileID: 0}
    - target: {fileID: 19800000, guid: 63432aaeb1e8c924ab47a1878ba67bc8, type: 3}
      propertyPath: InitialModule.startColor.maxColor.g
      value: 1
      objectReference: {fileID: 0}
    - target: {fileID: 19800000, guid: 63432aaeb1e8c924ab47a1878ba67bc8, type: 3}
      propertyPath: InitialModule.startColor.maxColor.b
      value: 1
      objectReference: {fileID: 0}
    - target: {fileID: 19800000, guid: 63432aaeb1e8c924ab47a1878ba67bc8, type: 3}
      propertyPath: InitialModule.startColor.maxColor.a
      value: 0.5882353
      objectReference: {fileID: 0}
    - target: {fileID: 19800000, guid: 63432aaeb1e8c924ab47a1878ba67bc8, type: 3}
      propertyPath: InitialModule.startColor.minColor.g
      value: 1
      objectReference: {fileID: 0}
    - target: {fileID: 19800000, guid: 63432aaeb1e8c924ab47a1878ba67bc8, type: 3}
      propertyPath: InitialModule.startColor.minColor.b
      value: 1
      objectReference: {fileID: 0}
    - target: {fileID: 19800000, guid: 63432aaeb1e8c924ab47a1878ba67bc8, type: 3}
      propertyPath: SizeBySpeedModule.y.minMaxState
      value: 2
      objectReference: {fileID: 0}
    - target: {fileID: 19800000, guid: 63432aaeb1e8c924ab47a1878ba67bc8, type: 3}
      propertyPath: SizeBySpeedModule.z.minMaxState
      value: 2
      objectReference: {fileID: 0}
    - target: {fileID: 19800000, guid: 63432aaeb1e8c924ab47a1878ba67bc8, type: 3}
      propertyPath: InitialModule.startColor.minColor.a
      value: 0.5882353
      objectReference: {fileID: 0}
    - target: {fileID: 19800000, guid: 63432aaeb1e8c924ab47a1878ba67bc8, type: 3}
      propertyPath: InitialModule.startSize.scalar
      value: 0.15
      objectReference: {fileID: 0}
    - target: {fileID: 19800000, guid: 63432aaeb1e8c924ab47a1878ba67bc8, type: 3}
      propertyPath: InitialModule.startSize.minScalar
      value: 0.05
      objectReference: {fileID: 0}
    - target: {fileID: 19800000, guid: 63432aaeb1e8c924ab47a1878ba67bc8, type: 3}
      propertyPath: prewarm
      value: 1
      objectReference: {fileID: 0}
    - target: {fileID: 19800000, guid: 63432aaeb1e8c924ab47a1878ba67bc8, type: 3}
      propertyPath: InitialModule.maxNumParticles
      value: 100
      objectReference: {fileID: 0}
    m_RemovedComponents: []
  m_SourcePrefab: {fileID: 100100000, guid: 63432aaeb1e8c924ab47a1878ba67bc8, type: 3}
--- !u!1001 &2033374275
PrefabInstance:
  m_ObjectHideFlags: 0
  serializedVersion: 2
  m_Modification:
    m_TransformParent: {fileID: 0}
    m_Modifications:
    - target: {fileID: 4512372228580588, guid: bce1702a2d4de3a46a2c9f8325f10233, type: 3}
      propertyPath: m_LocalPosition.x
      value: 0
      objectReference: {fileID: 0}
    - target: {fileID: 4512372228580588, guid: bce1702a2d4de3a46a2c9f8325f10233, type: 3}
      propertyPath: m_LocalPosition.y
      value: 21.9
      objectReference: {fileID: 0}
    - target: {fileID: 4512372228580588, guid: bce1702a2d4de3a46a2c9f8325f10233, type: 3}
      propertyPath: m_LocalPosition.z
      value: 0
      objectReference: {fileID: 0}
    - target: {fileID: 4512372228580588, guid: bce1702a2d4de3a46a2c9f8325f10233, type: 3}
      propertyPath: m_LocalRotation.x
      value: 0
      objectReference: {fileID: 0}
    - target: {fileID: 4512372228580588, guid: bce1702a2d4de3a46a2c9f8325f10233, type: 3}
      propertyPath: m_LocalRotation.y
      value: 0
      objectReference: {fileID: 0}
    - target: {fileID: 4512372228580588, guid: bce1702a2d4de3a46a2c9f8325f10233, type: 3}
      propertyPath: m_LocalRotation.z
      value: 0
      objectReference: {fileID: 0}
    - target: {fileID: 4512372228580588, guid: bce1702a2d4de3a46a2c9f8325f10233, type: 3}
      propertyPath: m_LocalRotation.w
      value: 1
      objectReference: {fileID: 0}
    - target: {fileID: 4512372228580588, guid: bce1702a2d4de3a46a2c9f8325f10233, type: 3}
      propertyPath: m_RootOrder
      value: 1
      objectReference: {fileID: 0}
    - target: {fileID: 224119026372144282, guid: bce1702a2d4de3a46a2c9f8325f10233,
        type: 3}
      propertyPath: m_LocalRotation.x
      value: 0
      objectReference: {fileID: 0}
    - target: {fileID: 224119026372144282, guid: bce1702a2d4de3a46a2c9f8325f10233,
        type: 3}
      propertyPath: m_LocalRotation.y
      value: 0
      objectReference: {fileID: 0}
    - target: {fileID: 224119026372144282, guid: bce1702a2d4de3a46a2c9f8325f10233,
        type: 3}
      propertyPath: m_LocalRotation.z
      value: 0
      objectReference: {fileID: 0}
    - target: {fileID: 224119026372144282, guid: bce1702a2d4de3a46a2c9f8325f10233,
        type: 3}
      propertyPath: m_LocalPosition.z
      value: 0
      objectReference: {fileID: 0}
    - target: {fileID: 224119026372144282, guid: bce1702a2d4de3a46a2c9f8325f10233,
        type: 3}
      propertyPath: m_LocalScale.x
      value: 0
      objectReference: {fileID: 0}
    - target: {fileID: 224119026372144282, guid: bce1702a2d4de3a46a2c9f8325f10233,
        type: 3}
      propertyPath: m_LocalScale.y
      value: 0
      objectReference: {fileID: 0}
    - target: {fileID: 224119026372144282, guid: bce1702a2d4de3a46a2c9f8325f10233,
        type: 3}
      propertyPath: m_LocalScale.z
      value: 0
      objectReference: {fileID: 0}
    - target: {fileID: 224899401579208070, guid: bce1702a2d4de3a46a2c9f8325f10233,
        type: 3}
      propertyPath: m_LocalPosition.x
      value: 0
      objectReference: {fileID: 0}
    - target: {fileID: 224899401579208070, guid: bce1702a2d4de3a46a2c9f8325f10233,
        type: 3}
      propertyPath: m_LocalPosition.y
      value: 0
      objectReference: {fileID: 0}
    - target: {fileID: 224990526275298746, guid: bce1702a2d4de3a46a2c9f8325f10233,
        type: 3}
      propertyPath: m_LocalPosition.y
      value: 0
      objectReference: {fileID: 0}
    - target: {fileID: 224990526275298746, guid: bce1702a2d4de3a46a2c9f8325f10233,
        type: 3}
      propertyPath: m_LocalPosition.x
      value: 0
      objectReference: {fileID: 0}
    - target: {fileID: 224990526275298746, guid: bce1702a2d4de3a46a2c9f8325f10233,
        type: 3}
      propertyPath: m_AnchoredPosition.x
      value: -0.00012207031
      objectReference: {fileID: 0}
    - target: {fileID: 224990526275298746, guid: bce1702a2d4de3a46a2c9f8325f10233,
        type: 3}
      propertyPath: m_AnchoredPosition.y
      value: 0
      objectReference: {fileID: 0}
    m_RemovedComponents: []
  m_SourcePrefab: {fileID: 100100000, guid: bce1702a2d4de3a46a2c9f8325f10233, type: 3}
